<?xml version="1.0" standalone="no"?>
<!DOCTYPE svg PUBLIC "-//W3C//DTD SVG 1.1//EN" "http://www.w3.org/Graphics/SVG/1.1/DTD/svg11.dtd" >
<svg xmlns="http://www.w3.org/2000/svg">
<metadata></metadata>
<defs>
<font id="bree_rgbold" horiz-adv-x="1095" >
<font-face units-per-em="2048" ascent="1475" descent="-573" />
<missing-glyph horiz-adv-x="409" />
<glyph unicode="&#xfb01;" horiz-adv-x="1112" d="M109 -430v1499q0 64 9 118t36.5 109.5t72 93.5t120.5 62.5t177 24.5q106 0 223 -28.5t187 -64.5l-78 -221q-60 26 -135 45t-121 19q-74 0 -111.5 -28t-37.5 -93v-57h567v-1049h-344v780h-223v-1210h-342z" />
<glyph unicode="&#xfb02;" horiz-adv-x="1290" d="M109 -430v1499q0 65 9 118t37.5 109t74.5 94t126.5 62.5t188.5 24.5q207 0 481 -82v-1026q0 -70 19.5 -101.5t66.5 -31.5q46 0 121 32l74 -227q-55 -34 -135 -54t-150 -20q-54 0 -98.5 8t-77.5 21t-59 35.5t-43 44t-29 54.5t-18.5 59.5t-10 66t-4 66.5t-0.5 69v389h-231 v-1210h-342zM451 1049h231v155q-68 23 -123 23t-81.5 -28t-26.5 -93v-57z" />
<glyph unicode="&#xfb03;" horiz-adv-x="1679" d="M109 -430v1499q0 67 6.5 118.5t30.5 108.5t64.5 94.5t114 62t173.5 24.5q177 0 323 -68q101 68 271 68q106 0 222.5 -28.5t186.5 -64.5l-78 -221q-60 26 -135 45t-121 19q-74 0 -111.5 -28t-37.5 -93v-57h567v-1049h-344v780h-223v-1210h-342v1210h-225v-1210h-342z M451 1049h225v20q0 77 12 129q-89 29 -129 29q-55 0 -81.5 -28t-26.5 -93v-57z" />
<glyph unicode="&#xfb04;" horiz-adv-x="1863" d="M109 -430v1499q0 67 6.5 118.5t30.5 108.5t64.5 94.5t114 62t173.5 24.5q173 0 331 -70q107 70 289 70q207 0 481 -82v-1026q0 -70 20 -101.5t67 -31.5q45 0 120 32l74 -227q-55 -34 -135 -54t-150 -20q-54 0 -98.5 8t-77.5 21t-59 35.5t-43 44t-29 54.5t-18.5 59.5 t-10 66t-4 66.5t-0.5 69v389h-231v-1210h-342v1210h-231v-1210h-342zM451 1049h231v20q0 74 10 125q-90 33 -133 33q-55 0 -81.5 -28t-26.5 -93v-57zM1024 1049h231v155q-68 23 -122 23q-55 0 -82 -28t-27 -93v-57z" />
<glyph horiz-adv-x="0" />
<glyph horiz-adv-x="0" />
<glyph horiz-adv-x="682" />
<glyph unicode="&#xd;" horiz-adv-x="450" />
<glyph unicode=" "  horiz-adv-x="409" />
<glyph unicode="&#x09;" horiz-adv-x="409" />
<glyph unicode="&#xa0;" horiz-adv-x="409" />
<glyph unicode="!" horiz-adv-x="544" d="M96 129q0 65 47 112.5t121 47.5q82 0 128 -44.5t46 -115.5q0 -67 -45 -115.5t-123 -48.5q-83 0 -128.5 46.5t-45.5 117.5zM123 1083v217q0 55 36 89t111 34q79 0 115.5 -34t36.5 -91v-215l-49 -682h-199z" />
<glyph unicode="&#x22;" horiz-adv-x="712" d="M92 1362h230l-23 -483h-186zM391 1362h230l-23 -483h-186z" />
<glyph unicode="#" horiz-adv-x="1083" d="M49 311v164h195l26 285h-182v164h197l28 315h176l-28 -315h192l31 315h176l-29 -315h185v-164h-199l-24 -285h184v-164h-199l-26 -311h-177l27 311h-194l-27 -311h-176l26 311h-182zM422 475h192l27 285h-195z" />
<glyph unicode="$" d="M41 143l119 269q79 -50 184.5 -88.5t187.5 -38.5q61 0 94 29t33 79q0 30 -12.5 53t-40.5 40.5t-56.5 29.5t-76.5 27q-46 14 -72.5 23.5t-70.5 28.5t-71 38t-60 49.5t-51 65.5t-31 84t-13 106q0 145 82.5 247.5t225.5 139.5v205h317v-203q182 -45 318 -178l-183 -211 q-91 67 -159 100t-134 33q-50 0 -79 -25.5t-29 -72.5q0 -28 13.5 -50t46 -41t65 -32.5t92.5 -34.5q57 -19 99.5 -38t91.5 -52t80.5 -72.5t53 -99t21.5 -131.5q0 -152 -80 -252.5t-217 -142.5v-228h-317v209q-112 18 -212.5 56t-158.5 79z" />
<glyph unicode="%" horiz-adv-x="1677" d="M72 973q0 185 91 279t243 94q149 0 236 -92t87 -277q0 -191 -88.5 -284t-247.5 -93q-321 0 -321 373zM303 963q0 -203 92 -203q49 0 75 47t26 166q0 117 -24.5 164t-70.5 47q-49 0 -73.5 -49t-24.5 -172zM434 61l598 1282l215 -88l-602 -1284zM950 340q0 185 91 279 t243 94q149 0 236.5 -91.5t87.5 -275.5q0 -192 -88.5 -285.5t-247.5 -93.5q-322 0 -322 373zM1182 330q0 -203 92 -203q49 0 74.5 46.5t25.5 166.5q0 118 -24 164.5t-70 46.5q-49 0 -73.5 -49t-24.5 -172z" />
<glyph unicode="&#x26;" horiz-adv-x="1701" d="M113 573q0 90 19 173t61.5 159t104.5 132t154.5 89t204.5 33q156 0 247 -66t91 -180q0 -103 -69 -196q96 62 177 164.5t132 207.5t88 222l307 -92q-65 -217 -162 -366.5t-247 -240.5h374v-258h-200q-66 -125 -152.5 -208t-215.5 -130t-296 -47q-132 0 -237.5 32t-176 87 t-117 132.5t-67 165t-20.5 187.5zM461 651q106 7 175 57t69 115q0 86 -82 86q-66 0 -114 -72t-48 -186zM477 453q40 -199 293 -199q41 0 85 11t90.5 35.5t85 59.5t67.5 88t39 117q-248 -115 -660 -112z" />
<glyph unicode="'" horiz-adv-x="413" d="M92 1362h230l-23 -483h-186z" />
<glyph unicode="(" horiz-adv-x="673" d="M100 532q0 245 76 502t213 484l268 -117q-217 -436 -217 -846q0 -215 54.5 -412t164.5 -422l-264 -131q-295 463 -295 942z" />
<glyph unicode=")" horiz-adv-x="673" d="M14 1405l265 131q294 -462 294 -942q0 -245 -76 -501.5t-212 -483.5l-269 117q217 436 217 845q0 215 -54.5 412t-164.5 422z" />
<glyph unicode="*" horiz-adv-x="917" d="M72 1284q21 56 60.5 69.5t103.5 -10.5q54 -20 100.5 -73.5t69.5 -108.5q-148 -69 -244 -33q-129 46 -90 156zM150 918.5q0 40.5 45 93.5q37 44 103 69.5t126 28.5q15 -163 -51 -242q-85 -105 -178 -30q-45 40 -45 80.5zM346 1421q0 138 115 138q59 0 85.5 -32t26.5 -102 q0 -57 -35 -119.5t-79 -101.5q-113 113 -113 217zM498 1110q60 -3 126 -28.5t103 -69.5q45 -53 45 -94t-45 -80q-91 -77 -178 30q-66 79 -51 242zM512 1161q23 55 69.5 108.5t100.5 73.5q64 24 103.5 10.5t60.5 -69.5q39 -110 -90 -156q-96 -36 -244 33z" />
<glyph unicode="+" d="M131 498v274h277v301h280v-301h277v-274h-277v-297h-280v297h-277z" />
<glyph unicode="," horiz-adv-x="479" d="M37 -311q30 339 65 467q16 54 46 81t85 27q58 0 121.5 -36.5t96.5 -73.5l-252 -516z" />
<glyph unicode="-" horiz-adv-x="659" d="M61 455v252h537v-252h-537z" />
<glyph unicode="." horiz-adv-x="475" d="M68 129q0 70 44.5 116t120.5 46q84 0 129.5 -43t45.5 -117q0 -72 -44 -118t-124 -46q-84 0 -128 44.5t-44 117.5z" />
<glyph unicode="/" horiz-adv-x="946" d="M29 -139l598 1712l293 -103l-603 -1714z" />
<glyph unicode="0" d="M49 666q0 344 135 512t371 168q492 0 492 -674q0 -360 -127.5 -525t-376.5 -165q-251 0 -372.5 166t-121.5 518zM393 645q0 -393 154 -393q37 0 64 19t49 64.5t33.5 129t11.5 203.5q0 114 -11 193t-32 123.5t-48 63.5t-63 19q-52 0 -85 -36t-53 -131.5t-20 -254.5z" />
<glyph unicode="1" horiz-adv-x="1005" d="M68 1061l421 258h285l-20 -252v-809h213v-258h-781v258h224v686l-215 -108z" />
<glyph unicode="2" horiz-adv-x="1067" d="M43 1120q104 104 234.5 165t265.5 61q206 0 315 -103.5t109 -279.5q0 -111 -43.5 -204t-137.5 -198l-254 -285h476v-276h-955v207l424 479q72 82 99.5 129t27.5 109q0 55 -33 83.5t-82 28.5q-53 0 -121.5 -39t-136.5 -104z" />
<glyph unicode="3" horiz-adv-x="1056" d="M45 88l92 270q72 -37 169.5 -63.5t158.5 -26.5q69 0 110 27t41 80q0 78 -81 178q-100 -33 -222 -55l-80 247q85 18 141.5 33.5t112 39.5t82.5 56.5t27 73.5q0 54 -30.5 78.5t-78.5 24.5q-54 0 -129.5 -35.5t-146.5 -87.5l-164 221q33 30 75 58.5t108 62.5t153 55t180 21 q178 0 279.5 -90.5t101.5 -231.5q0 -179 -160 -291q85 -69 132 -158.5t47 -183.5q0 -82 -28 -154t-84.5 -130t-151 -91.5t-216.5 -33.5q-118 0 -237.5 31t-200.5 75z" />
<glyph unicode="4" horiz-adv-x="1138" d="M74 289v221l395 850l272 -135l-317 -670h182l121 328h195v-328h170v-270h-170v-285h-344v289h-504z" />
<glyph unicode="5" horiz-adv-x="1071" d="M35 84l102 266q176 -88 316 -88q76 0 116.5 36.5t40.5 104.5q0 191 -456 191l90 725h712v-281h-448l-25 -213q106 -13 190.5 -42.5t151.5 -79t103.5 -126.5t36.5 -176q0 -62 -17 -121t-54.5 -113.5t-93.5 -95t-139.5 -65t-185.5 -24.5q-123 0 -238.5 29t-201.5 73z" />
<glyph unicode="6" horiz-adv-x="1093" d="M82 571q0 79 9.5 153t32.5 152t58.5 145.5t91.5 129.5t128 108.5t171.5 79t217.5 43.5l67 -254q-363 -53 -422 -333q39 24 105.5 40.5t120.5 16.5q170 0 261 -105t91 -294q0 -219 -119 -346t-346 -127q-124 0 -215 42t-145.5 122t-80.5 185.5t-26 241.5zM416 573 q-2 -166 29 -248.5t104 -82.5q60 0 95.5 48t35.5 146q0 87 -30.5 132.5t-86.5 45.5q-36 0 -78 -12.5t-69 -28.5z" />
<glyph unicode="7" horiz-adv-x="1007" d="M66 1038v281h933v-225q-84 -68 -151 -149.5t-109.5 -155t-73 -160t-45.5 -149.5t-23.5 -141t-9.5 -117t-1 -93v-129h-361v145q0 82 5.5 153t25.5 170t54 187t97.5 190t149.5 193h-491z" />
<glyph unicode="8" horiz-adv-x="1101" d="M82 340q0 193 213 354q-174 123 -174 291q0 160 120.5 260.5t327.5 100.5q108 0 190 -26t129 -72t70 -101.5t23 -120.5q0 -154 -164 -307q219 -151 219 -348q0 -80 -29 -149t-87 -123.5t-154 -85.5t-221 -31q-106 0 -188.5 21.5t-133.5 56.5t-83.5 83t-45 96t-12.5 101z M408 358q0 -53 33.5 -89t97.5 -36q63 0 99 36t36 96q0 90 -154 186q-112 -92 -112 -193zM444 1008q0 -52 32.5 -89.5t94.5 -78.5q105 93 105 172q0 55 -34 77.5t-83 22.5q-46 0 -80.5 -28t-34.5 -76z" />
<glyph unicode="9" d="M80 872q0 218 122.5 346t350.5 128q122 0 211.5 -42t143 -121.5t79 -185t25.5 -241.5q0 -114 -18 -212.5t-67 -198.5t-126.5 -173.5t-204.5 -127.5t-293 -71l-67 256q89 14 157 36t125 57.5t93 89.5t51 125q-101 -62 -230 -62q-170 0 -261 104.5t-91 292.5zM412 889 q0 -87 31 -134.5t87 -47.5q31 0 76.5 14.5t71.5 32.5q1 109 -11.5 180.5t-42.5 111t-79 39.5q-60 0 -96.5 -49t-36.5 -147z" />
<glyph unicode=":" horiz-adv-x="475" d="M68 129q0 70 44.5 116t120.5 46q84 0 129.5 -43t45.5 -117q0 -72 -44 -118t-124 -46q-84 0 -128 44.5t-44 117.5zM68 856q0 70 44.5 116t120.5 46q84 0 129.5 -43t45.5 -117q0 -72 -44 -118t-124 -46q-84 0 -128 44.5t-44 117.5z" />
<glyph unicode=";" horiz-adv-x="479" d="M37 -311q30 339 65 467q16 54 46 81t85 27q58 0 121.5 -36.5t96.5 -73.5l-252 -516zM111 856q0 70 44.5 116t120.5 46q84 0 129.5 -43t45.5 -117q0 -72 -44 -118t-124 -46q-84 0 -128 44.5t-44 117.5z" />
<glyph unicode="&#x3c;" d="M123 551v201l768 387l115 -252l-496 -228l498 -245l-117 -256z" />
<glyph unicode="=" d="M133 264v273h830v-273h-830zM133 698v273h830v-273h-830z" />
<glyph unicode="&#x3e;" d="M123 883l117 256l768 -394v-200l-768 -387l-115 252l496 227z" />
<glyph unicode="?" horiz-adv-x="829" d="M80 1374q43 19 126.5 34t160.5 15q98 0 171.5 -22.5t114 -55.5t65.5 -78t32.5 -80.5t7.5 -72.5q0 -62 -14 -114t-34.5 -88t-60.5 -74t-74 -63t-94 -64q-46 -30 -66 -68.5t-20 -95.5v-146h-256q-20 147 -20 228q0 62 12.5 106.5t42 78t51.5 49.5t68 45q11 7 16 10 q60 37 87.5 68t27.5 81q0 113 -121 113q-63 0 -176 -31zM96 129q0 65 47 112.5t121 47.5q82 0 128 -44.5t46 -115.5q0 -67 -45 -115.5t-123 -48.5q-83 0 -128.5 46.5t-45.5 117.5z" />
<glyph unicode="@" horiz-adv-x="1945" d="M127 442q0 207 70.5 375.5t192.5 278.5t285 169.5t351 59.5q135 0 254 -29t218 -89.5t170.5 -147.5t111 -207.5t39.5 -265.5q0 -278 -138.5 -432t-361.5 -154h-168l-16 102l-11 2q-23 -31 -44.5 -50.5t-66.5 -37.5t-102 -18q-315 0 -315 410q0 222 115 351.5t329 129.5 q62 0 151.5 -15.5t166.5 -46.5v-637q98 3 162.5 95t64.5 282q0 258 -141 402.5t-424 144.5q-161 0 -287 -51t-204 -141.5t-118 -210t-40 -260.5q0 -137 36 -254t104.5 -204.5t175.5 -137.5t241 -50q164 0 291 54l59 -193q-148 -63 -356 -63q-164 0 -298 45.5t-225.5 123.5 t-153.5 185.5t-90 228.5t-28 256zM864 426q0 -229 121 -229q30 0 50.5 10t30.5 21.5t15 36.5t5.5 38.5t0.5 44.5v338q-33 10 -77 10q-42 0 -72.5 -27t-45.5 -70.5t-21.5 -86t-6.5 -86.5z" />
<glyph unicode="A" horiz-adv-x="1325" d="M8 0l443 1362h395l471 -1362h-375l-92 291h-412l-92 -291h-338zM498 549h286l-137 485h-8z" />
<glyph unicode="B" horiz-adv-x="1214" d="M115 0v1362h522q78 0 142.5 -9.5t125 -33.5t101.5 -63t65.5 -101t24.5 -143q0 -86 -42 -157.5t-112 -121.5q221 -88 221 -313q0 -204 -143 -312t-412 -108h-493zM467 268h131q103 0 148 41t45 119q0 74 -47.5 110.5t-135.5 36.5h-141v-307zM467 825h100q85 0 128.5 40 t43.5 104q0 137 -159 137h-113v-281z" />
<glyph unicode="C" horiz-adv-x="1214" d="M70 670q0 131 26 240t72.5 185.5t107 134t134 91t148 49.5t153.5 16q145 0 272 -68t221 -214l-250 -180q-123 170 -260 170q-119 0 -190.5 -104t-71.5 -300q0 -201 71 -313.5t216 -112.5q142 0 287 135l178 -229q-110 -101 -226.5 -148t-257.5 -47q-293 0 -461.5 179 t-168.5 516z" />
<glyph unicode="D" horiz-adv-x="1323" d="M115 0v1362h477q314 0 487.5 -158.5t173.5 -476.5q0 -155 -35.5 -279.5t-95.5 -207t-144.5 -137.5t-178 -79t-199.5 -24h-485zM467 272h137q140 0 218.5 107t78.5 313q0 114 -25 194t-71.5 122.5t-100.5 60.5t-122 18h-115v-815z" />
<glyph unicode="E" horiz-adv-x="1081" d="M115 0v1362h891v-307h-539v-207h463v-307h-463v-234h553v-307h-905z" />
<glyph unicode="F" horiz-adv-x="1103" d="M115 0v1362h940v-307h-588v-224h487v-307h-487v-524h-352z" />
<glyph unicode="G" horiz-adv-x="1310" d="M70 678q0 153 37 276.5t98 202.5t143.5 132t168.5 75t179 22q72 0 134.5 -11.5t130 -39.5t131.5 -83t120 -136l-256 -188q-67 88 -130 126t-134 38q-122 0 -191 -101t-69 -293q0 -440 277 -440q34 0 77 7.5t66 17.5v419h354v-587q-89 -64 -223 -102t-285 -38 q-295 0 -461.5 178t-166.5 525z" />
<glyph unicode="H" horiz-adv-x="1366" d="M115 0v1362h352v-524h430v524h354v-1362h-354v528h-430v-528h-352z" />
<glyph unicode="I" horiz-adv-x="598" d="M123 0v1362h352v-1362h-352z" />
<glyph unicode="J" horiz-adv-x="907" d="M4 76l98 260q110 -66 201 -66q146 0 146 162v930h352v-899q0 -135 -13 -199q-29 -134 -139 -211.5t-270 -77.5q-100 0 -204 29.5t-171 71.5z" />
<glyph unicode="K" horiz-adv-x="1220" d="M115 0v1362h350v-549l373 549h389l-391 -563l397 -799h-402l-245 504l-121 -166v-338h-350z" />
<glyph unicode="L" horiz-adv-x="1054" d="M115 0v1362h354v-1053h543v-309h-897z" />
<glyph unicode="M" horiz-adv-x="1603" d="M80 0l78 1362h366l281 -774h8l277 774h362l72 -1362h-336l-39 719h-6l-219 -582h-246l-217 561h-8l-39 -698h-334z" />
<glyph unicode="N" horiz-adv-x="1357" d="M115 0v1362h325l449 -741h4v741h350v-1362h-311l-463 756h-6v-756h-348z" />
<glyph unicode="O" horiz-adv-x="1363" d="M70 678q0 152 37.5 274.5t99 202t145 133t170.5 76t180 22.5q98 0 183 -23.5t160.5 -76.5t129.5 -133.5t85.5 -201.5t31.5 -273q0 -341 -165.5 -522t-450.5 -181q-289 0 -447.5 180t-158.5 523zM432 692q0 -63 5.5 -118t23 -113.5t45 -100t75 -68t109.5 -26.5 q68 0 117 33.5t76 92.5t39 128t12 152q0 57 -6 110.5t-23.5 112t-44.5 101t-73 70.5t-105 28q-66 0 -116 -33.5t-78.5 -92t-42 -127.5t-13.5 -149z" />
<glyph unicode="P" horiz-adv-x="1171" d="M115 0v1362h499q244 0 380 -111t136 -321q0 -231 -152.5 -354t-406.5 -123h-104v-453h-352zM467 725h80q109 0 165 41t56 141t-50 139t-153 39h-98v-360z" />
<glyph unicode="Q" horiz-adv-x="1372" d="M96 924q0 213 148.5 337.5t384.5 124.5q102 0 192.5 -23t169 -73.5t135 -125t89 -183t32.5 -242.5q0 -145 -39 -282.5t-106 -247.5q136 -128 255 -203t265 -96l-66 -264q-168 22 -339 120.5t-302 237.5q-192 -162 -417 -162q-105 0 -182.5 26t-120.5 71t-63.5 98 t-20.5 115q0 135 101 223t280 88q81 0 169 -23t156 -59q31 66 50.5 157t19.5 169q0 82 -14.5 150t-45 123.5t-83 86.5t-123.5 31q-87 0 -137 -46t-50 -132q0 -88 55.5 -134.5t165.5 -64.5l-53 -182q-36 -4 -70 -4q-97 0 -182 30q-114 40 -184 133.5t-70 225.5zM416 160 q0 -29 22.5 -50.5t71.5 -21.5t96 23.5t78 62.5q-38 28 -86 45t-86 17q-44 0 -70 -20t-26 -56z" />
<glyph unicode="R" horiz-adv-x="1245" d="M115 0v1362h487q123 0 216 -20t164.5 -64t108.5 -120t37 -183q0 -121 -61 -211.5t-149 -134.5q58 -28 90 -107l229 -522h-377l-188 432q-35 78 -109 78h-96v-510h-352zM467 780h133q80 0 124 41.5t44 124.5q0 81 -47 111t-148 30h-106v-307z" />
<glyph unicode="S" horiz-adv-x="1114" d="M25 117l118 289q76 -48 191 -86.5t198 -38.5q142 0 142 118q0 25 -11 45t-26.5 33.5t-46 27t-55.5 21.5t-68 21q-44 13 -77 25t-76 32t-74.5 41t-64 53t-53 68t-33.5 85.5t-13 106.5q0 200 138.5 314t356.5 114q142 0 274 -55.5t226 -146.5l-182 -232q-191 140 -318 140 q-54 0 -91.5 -27t-37.5 -80q0 -25 12 -46t28 -34.5t50.5 -29t58.5 -24t73 -24.5q47 -15 81 -27.5t77 -32.5t73 -41.5t61.5 -53.5t51 -68.5t31.5 -85.5t12 -106q0 -208 -143.5 -322.5t-377.5 -114.5q-141 0 -284 45t-221 97z" />
<glyph unicode="T" horiz-adv-x="1153" d="M33 1055v307h1089v-307h-377v-1055h-350v1055h-362z" />
<glyph unicode="U" horiz-adv-x="1288" d="M104 451v911h353v-891q0 -111 50 -157t142 -46q82 0 132 49.5t50 143.5v901h353v-942q0 -205 -149.5 -325t-393.5 -120q-269 0 -403 115t-134 361z" />
<glyph unicode="V" horiz-adv-x="1271" d="M6 1362h359l268 -932h12l275 932h346l-451 -1362h-371z" />
<glyph unicode="W" horiz-adv-x="1667" d="M10 1362h352l162 -842h11l147 740h342l143 -742h11l127 844h352l-273 -1362h-368l-164 719h-8l-170 -719h-375z" />
<glyph unicode="X" horiz-adv-x="1333" d="M-16 0l479 715l-424 647h405l236 -387l244 387h395l-436 -645l465 -717h-406l-270 430l-277 -430h-411z" />
<glyph unicode="Y" horiz-adv-x="1216" d="M-14 1362h387l235 -492h8l248 492h367l-455 -838v-524h-350v522z" />
<glyph unicode="Z" horiz-adv-x="1075" d="M45 0v217l551 877h-541v268h963v-205l-563 -887h583v-270h-993z" />
<glyph unicode="[" horiz-adv-x="620" d="M121 -367v1856h487v-215h-176v-1426h176v-215h-487z" />
<glyph unicode="\" horiz-adv-x="946" d="M35 1473l289 104l602 -1714l-293 -101z" />
<glyph unicode="]" horiz-adv-x="620" d="M12 -152h176v1426h-176v215h488v-1856h-488v215z" />
<glyph unicode="^" horiz-adv-x="1177" d="M98 606l389 799h222l385 -801l-279 -41l-219 477l-219 -477z" />
<glyph unicode="_" horiz-adv-x="1024" d="M0 -152h1024v-184h-1024v184z" />
<glyph unicode="`" horiz-adv-x="1024" d="M291 1522q0 33 19 60.5t50 46t60.5 30.5t60.5 20l254 -419l-98 -84q-192 140 -277 227q-69 69 -69 119z" />
<glyph unicode="a" horiz-adv-x="1107" d="M51 477q0 278 141.5 440t413.5 162q69 0 177.5 -19.5t220.5 -62.5v-776l22 -221h-291l-14 96l-12 2q-82 -129 -265 -129q-91 0 -161 28.5t-113 76t-70.5 114.5t-38 137t-10.5 152zM391 502q0 -86 11.5 -146.5t45.5 -101.5t91 -41t91 35t34 82v493q-43 15 -95 15 q-48 0 -83.5 -27t-55.5 -75.5t-29.5 -106.5t-9.5 -127z" />
<glyph unicode="b" d="M102 53v1370h344v-393q82 49 197 49q195 0 303.5 -129t108.5 -381q0 -297 -135 -449.5t-388 -152.5q-115 0 -238 25t-192 61zM446 225q52 -20 103 -20q49 0 81.5 21.5t50.5 65.5t25 99t7 133q0 68 -6.5 120t-23.5 98.5t-50 71t-82 24.5q-44 0 -74.5 -28t-30.5 -71v-514z " />
<glyph unicode="c" horiz-adv-x="946" d="M51 512q0 118 29 214.5t78 161t115 108.5t137 63.5t147 19.5q266 0 401 -213l-208 -178q-42 58 -84 89.5t-95 31.5q-85 0 -130.5 -73.5t-45.5 -209.5q0 -138 51.5 -212t153.5 -74q54 0 103 19t112 63l121 -232q-154 -121 -385 -121q-234 0 -367 140t-133 403z" />
<glyph unicode="d" horiz-adv-x="1107" d="M51 473q0 177 60 313.5t177.5 214.5t276.5 78q57 0 99 -10v354h340v-1200l22 -223h-287l-18 98h-12q-79 -129 -254 -129q-99 0 -173.5 30.5t-117.5 78t-69.5 117t-35 135t-8.5 143.5zM391 500q0 -287 144 -287q57 0 93 35t36 78v495q-43 15 -80 15q-57 0 -97 -29.5 t-60 -81.5t-28 -106.5t-8 -118.5z" />
<glyph unicode="e" horiz-adv-x="962" d="M51 496q0 113 34 216.5t97.5 186t166 131.5t229.5 49q166 0 262 -81t96 -238q0 -62 -19.5 -113.5t-51.5 -87.5t-77.5 -65t-92.5 -46.5t-102.5 -30t-100.5 -18t-93 -8.5q6 -73 59.5 -120.5t143.5 -47.5q122 0 254 86l90 -225q-5 -5 -22.5 -16.5t-54.5 -29t-81 -33 t-107.5 -27t-127.5 -11.5q-132 0 -230 38.5t-156.5 110t-87 166t-28.5 214.5zM383 598q60 3 116 20.5t98 54t42 83.5q0 38 -21.5 61t-58.5 23q-76 0 -123.5 -67.5t-52.5 -174.5z" />
<glyph unicode="f" horiz-adv-x="733" d="M109 -430v1497q0 46 3 83t12.5 80.5t26 77t46 66.5t69 54t97.5 34t131 13q76 0 173 -20t154 -50l-80 -225q-37 19 -95 32t-93 13q-51 0 -76.5 -28.5t-25.5 -92.5v-55h282v-269h-282v-1210h-342z" />
<glyph unicode="g" horiz-adv-x="1099" d="M49 543q0 257 147 396.5t390 139.5q98 0 213.5 -21.5t206.5 -60.5v-796q0 -140 -7 -240q-18 -242 -137.5 -373t-345.5 -131q-181 0 -275 78t-94 217q0 108 54.5 194t160.5 163q-131 20 -222 137t-91 297zM391 547q0 -57 5 -98.5t19 -84t45.5 -65.5t78.5 -23q54 0 90.5 38 t36.5 104v407q-46 11 -84 11q-51 0 -89 -24.5t-59.5 -66.5t-32 -91.5t-10.5 -106.5zM455 -195q0 -102 94 -102q39 0 63.5 18.5t37 60t16.5 90t4 126.5v104q-97 -56 -156 -135t-59 -162z" />
<glyph unicode="h" d="M94 0v1423h342v-432q98 88 234 88q331 0 331 -368v-711h-342v666q0 75 -20 113t-74 38q-61 0 -95 -40.5t-34 -104.5v-672h-342z" />
<glyph unicode="i" horiz-adv-x="546" d="M98 1348q0 72 50 121t133 49q80 0 131 -49t51 -121q0 -74 -50.5 -122t-131.5 -48q-83 0 -133 47.5t-50 122.5zM109 0v1049h344v-1049h-344z" />
<glyph unicode="j" horiz-adv-x="544" d="M-209 -379l86 236q72 -37 131 -37q50 0 75.5 35t25.5 116v1078h342v-1098q0 -50 -2 -86t-10 -81.5t-22 -78t-39.5 -65.5t-61.5 -53t-89 -33t-121 -13q-77 0 -165 22t-150 58zM104 1348q0 72 50 121t133 49q80 0 131 -49t51 -121q0 -74 -51 -122t-133 -48t-131.5 47.5 t-49.5 122.5z" />
<glyph unicode="k" horiz-adv-x="1083" d="M102 0v1423h347v-585h8q114 241 342 241q107 0 178.5 -61.5t71.5 -183.5q0 -107 -63 -192.5t-155 -137.5l265 -508h-398l-198 455q-9 -3 -51 -9v-442h-347zM453 578q102 8 178 60.5t76 119.5q0 37 -19.5 56.5t-54.5 19.5q-67 0 -119 -78t-61 -178z" />
<glyph unicode="l" horiz-adv-x="710" d="M104 344v1079h342v-1052q0 -71 20.5 -103t68.5 -32q38 0 118 34l74 -227q-52 -34 -134 -55t-153 -21q-66 0 -118 11t-87 28.5t-60 47.5t-38.5 58.5t-21 71t-9.5 77t-2 83.5z" />
<glyph unicode="m" horiz-adv-x="1640" d="M84 1049h283l22 -111q103 141 283 141q191 0 270 -135q98 135 281 135q155 0 239 -89.5t84 -272.5v-717h-342v657q0 38 -3.5 64t-13 49.5t-28.5 35t-49 11.5q-58 0 -85.5 -40.5t-27.5 -110.5v-666h-342v657q0 39 -3 64t-11.5 49t-28 35.5t-49.5 11.5q-112 0 -112 -153 v-664h-342v838z" />
<glyph unicode="n" horiz-adv-x="1110" d="M84 1049h285l20 -113q107 143 299 143q156 0 242 -90t86 -272v-717h-344v657q0 81 -17.5 120.5t-72.5 39.5q-62 0 -97.5 -42.5t-35.5 -110.5v-664h-340v838z" />
<glyph unicode="o" horiz-adv-x="1067" d="M49 516q0 124 31 223t81 161.5t117 104t134.5 58t138.5 16.5q41 0 78.5 -4t87.5 -17.5t91.5 -35.5t84 -62.5t71.5 -94.5t47.5 -135.5t18.5 -180.5q0 -141 -39.5 -253t-108.5 -183t-161 -108.5t-199 -37.5q-225 0 -349 137.5t-124 411.5zM397 555q0 -58 3 -103t11.5 -91 t23.5 -76t41 -49t61 -19q74 0 106.5 73.5t32.5 227.5q0 162 -31.5 239t-107.5 77q-70 0 -105 -73.5t-35 -205.5z" />
<glyph unicode="p" horiz-adv-x="1107" d="M102 -430v1431q116 39 241 58.5t216 19.5q247 0 372.5 -138.5t125.5 -410.5q0 -271 -122 -417t-337 -146q-81 0 -152 29v-426h-344zM446 252q52 -27 97 -27q49 0 84 26.5t53 71.5t25.5 92.5t7.5 100.5q0 47 -3.5 84.5t-15 81t-30.5 73t-54 49t-82 19.5q-41 0 -82 -12 v-559z" />
<glyph unicode="q" horiz-adv-x="1103" d="M51 496q0 172 61 302t183.5 205.5t292.5 75.5q220 0 411 -75v-1434h-342v473h-6q-78 -74 -198 -74q-190 0 -296 133t-106 394zM393 508q0 -46 1 -76t5.5 -68t14 -62t25 -46t40.5 -32.5t58 -10.5q54 0 88 36t34 85v489q-42 11 -73 11q-69 0 -114 -49t-62 -119t-17 -158z " />
<glyph unicode="r" horiz-adv-x="796" d="M84 1049h278l27 -146q38 90 105.5 133t140.5 43q93 0 170 -39l-55 -284q-65 35 -148 35q-67 0 -107.5 -40t-41.5 -110v-641h-342v848z" />
<glyph unicode="s" horiz-adv-x="892" d="M20 82l89 242q63 -41 152 -74t153 -33q98 0 98 78q0 18 -7.5 32.5t-17.5 24t-30 19t-35 14.5t-43 14q-59 19 -97 33.5t-86 42.5t-75 60t-46.5 83t-19.5 115q0 163 115.5 254.5t294.5 91.5q120 0 227.5 -41t184.5 -112l-156 -197q-138 107 -238 107q-44 0 -69 -19t-25 -55 q0 -41 34.5 -65.5t106.5 -47.5q56 -18 93 -32.5t84.5 -42.5t76 -60.5t48.5 -83t20 -113.5q0 -169 -112.5 -259.5t-305.5 -90.5q-128 0 -241.5 36.5t-172.5 78.5z" />
<glyph unicode="t" horiz-adv-x="759" d="M102 375v1048h347v-374h256v-269h-256v-413q0 -79 32 -110.5t90 -31.5q47 0 111 33l74 -215q-50 -32 -129 -54t-162 -22q-73 0 -129.5 12.5t-94.5 31.5t-65 52.5t-41 64t-22 77.5t-9.5 82t-1.5 88z" />
<glyph unicode="u" horiz-adv-x="1116" d="M102 344v705h344v-660q0 -79 19 -117.5t78 -38.5q54 0 89.5 39.5t35.5 100.5v676h342v-850l22 -199h-289l-14 98h-8q-94 -125 -270 -125q-349 0 -349 371z" />
<glyph unicode="v" horiz-adv-x="1075" d="M102 346v703h344v-662q0 -81 16.5 -115t69.5 -34q146 0 146 329q0 200 -70 482h336q31 -105 50.5 -232.5t19.5 -238.5q0 -297 -132.5 -451t-387.5 -154q-199 0 -295.5 92t-96.5 281z" />
<glyph unicode="w" horiz-adv-x="1595" d="M102 344v705h344v-674q0 -75 16 -107t64 -32q52 0 81.5 34.5t29.5 94.5v684h342v-656q0 -36 1 -55t5 -42t12 -34t23.5 -18.5t38.5 -7.5q135 0 135 335q0 212 -66 478h336q70 -242 70 -471q0 -288 -118 -446.5t-345 -158.5q-197 0 -280 136q-117 -136 -318 -136 q-182 0 -276.5 92.5t-94.5 278.5z" />
<glyph unicode="x" horiz-adv-x="1032" d="M-23 0l357 535l-324 514h365l151 -267l162 267h352l-333 -510l348 -539h-373l-166 283l-168 -283h-371z" />
<glyph unicode="y" horiz-adv-x="1105" d="M102 412v637h344v-590q0 -38 1.5 -61.5t7.5 -49t17 -39t30.5 -22t48.5 -8.5q52 0 84.5 37t32.5 100v633h344v-818q0 -225 -6 -286q-46 -490 -494 -490q-172 0 -264 75t-92 208q0 201 202 348q-127 24 -191.5 109.5t-64.5 216.5zM463 -205q0 -42 23 -70t69 -28q67 0 94 58 t27 167v174q-44 -26 -78.5 -53.5t-67 -64.5t-50 -83.5t-17.5 -99.5z" />
<glyph unicode="z" horiz-adv-x="878" d="M4 -209q0 270 299 432q-21 12 -47 24.5t-43.5 19.5t-48.5 19t-43 17v178l313 303h-401v265h835v-191l-413 -412l110 -47q155 -66 232 -175.5t80 -254.5q0 -79 -15 -149q-38 -173 -170 -268t-301 -95q-191 0 -289 88.5t-98 245.5zM307 -170q0 -55 26.5 -88t82.5 -33 q68 0 106.5 59t38.5 150q0 117 -74 176q-80 -48 -130 -118.5t-50 -145.5z" />
<glyph unicode="{" horiz-adv-x="694" d="M61 469v213q86 3 116 57t24 176q-17 266 -17 291q0 42 9 80q22 99 99.5 155t205.5 56q98 0 190 -20l-24 -203q-47 8 -78 8q-62 0 -81.5 -36.5t-19.5 -112.5q0 -42 10.5 -147t10.5 -159q0 -188 -146 -252q79 -25 111.5 -78.5t32.5 -160.5q0 -53 -13.5 -178.5t-13.5 -167.5 q0 -78 19.5 -115t81.5 -37q30 0 77 8l25 -206q-102 -21 -193 -21q-130 0 -207 57.5t-98 159.5q-8 33 -8 78q0 52 21 322q11 121 -18 175.5t-116 57.5z" />
<glyph unicode="|" horiz-adv-x="679" d="M195 -180v1710h290v-1710h-290z" />
<glyph unicode="}" horiz-adv-x="694" d="M6 1477q92 20 191 20q128 0 205.5 -56t99.5 -155q8 -33 8 -80q0 -41 -16 -291q-6 -122 23.5 -176t115.5 -57v-213q-87 -3 -115.5 -57.5t-17.5 -175.5q20 -257 20 -322q0 -45 -8 -78q-21 -102 -98 -159.5t-207 -57.5q-91 0 -193 21l25 206q47 -8 78 -8q62 0 81 37t19 115 q0 42 -13.5 167.5t-13.5 178.5q0 107 32.5 160.5t111.5 78.5q-146 64 -146 252q0 54 10.5 159t10.5 147q0 76 -19 112.5t-81 36.5q-31 0 -78 -8z" />
<glyph unicode="~" horiz-adv-x="1280" d="M37 608q38 55 71 94t78 78t97.5 59.5t111.5 20.5q58 0 123 -24t113 -52.5t108 -52.5t109 -24q102 0 196 141l199 -162q-63 -119 -155 -183.5t-207 -64.5q-67 0 -136.5 23t-118 51t-102 51t-90.5 23q-52 0 -98 -36.5t-105 -107.5z" />
<glyph unicode="&#xa1;" horiz-adv-x="546" d="M115 885q0 67 45 115.5t123 48.5q83 0 128.5 -46.5t45.5 -117.5q0 -65 -47 -112.5t-121 -47.5q-82 0 -128 44.5t-46 115.5zM131 -70l49 682h199l51 -682v-217q0 -55 -36 -89t-111 -34q-79 0 -115.5 34t-36.5 91v215z" />
<glyph unicode="&#xa2;" d="M123 641q0 395 340 520v242h317v-246q72 -22 138.5 -73t111.5 -121l-209 -175q-84 119 -178 119q-77 0 -125.5 -68.5t-48.5 -187.5q0 -125 45.5 -191.5t132.5 -66.5q55 0 97.5 27t86.5 76l195 -187q-56 -72 -114 -112.5t-132 -61.5v-258h-317v258q-155 41 -247.5 165.5 t-92.5 340.5z" />
<glyph unicode="&#xa3;" horiz-adv-x="1200" d="M4 -111q74 31 121 82t70 146l34 145h-135v230h178l88 421q48 231 153.5 332t315.5 101q121 0 222.5 -53.5t158.5 -116.5l-166 -197q-111 100 -200 100q-71 0 -103 -41.5t-55 -146.5l-84 -399h285v-228h-328l-22 -96q-36 -159 -162 -266l4 -6q99 36 176 36q65 0 180 -21.5 t176 -21.5q94 0 166 29l-35 -274q-81 -19 -151 -19q-98 0 -291.5 36t-294.5 36q-154 0 -301 -70v262z" />
<glyph unicode="&#xa5;" horiz-adv-x="1142" d="M14 1319h351l204 -471h9l213 471h342l-279 -535h162v-200h-281v-127h281v-201h-281v-256h-350v256h-276v201h276v127h-276v200h165z" />
<glyph unicode="&#xa6;" horiz-adv-x="681" d="M195 -180v762h290v-762h-290zM195 821v709h290v-709h-290z" />
<glyph unicode="&#xa7;" horiz-adv-x="1153" d="M84 752l252 71q0 -105 30.5 -190.5t78.5 -143.5t106.5 -108t117.5 -96.5t107 -97t78.5 -122t30.5 -159.5q0 -40 -9 -80t-35 -85t-66.5 -79.5t-110 -57t-158.5 -22.5q-63 0 -139.5 14t-120.5 31l45 226q93 -33 155 -33q61 0 95 26.5t34 75.5q0 34 -28.5 70t-73 72.5 t-98.5 80t-107.5 102t-96.5 127.5t-67.5 167t-19.5 211zM268 1042q0 40 9 80t35 85t66.5 79.5t110 57t158.5 22.5q63 0 139.5 -14t120.5 -31l-45 -225q-91 32 -155 32q-61 0 -95 -26.5t-34 -75.5q0 -34 28.5 -70t73 -72.5t98.5 -80t107.5 -101.5t96.5 -127t67.5 -167 t19.5 -211l-252 -72q0 105 -30.5 190.5t-78.5 143.5t-107 108t-117.5 96.5t-106.5 97t-78.5 122t-30.5 159.5z" />
<glyph unicode="&#xa8;" horiz-adv-x="1024" d="M131 1386q0 62 43.5 105t114.5 43q69 0 113 -43t44 -105q0 -65 -43.5 -107t-113.5 -42q-72 0 -115 41.5t-43 107.5zM578 1386q0 62 44 105t115 43q69 0 113.5 -43.5t44.5 -104.5q0 -65 -45 -107t-115 -42q-72 0 -114.5 41.5t-42.5 107.5z" />
<glyph unicode="&#xa9;" horiz-adv-x="1669" d="M102 668q0 153 54 285.5t148.5 227.5t229 149t291.5 54q161 0 299.5 -54t235.5 -148t152 -224t55 -278q0 -208 -94.5 -373t-264 -256.5t-383.5 -91.5q-220 0 -385.5 92t-251.5 252t-86 365zM276 668q0 -249 154 -405.5t397 -156.5q251 0 409.5 154.5t158.5 407.5 q0 123 -43 229.5t-118 180.5t-180 116.5t-227 42.5q-250 0 -400.5 -158t-150.5 -411zM457 668q0 206 107.5 320t283.5 114q103 0 188.5 -50t124.5 -118l-147 -117q-29 37 -75 66.5t-97 29.5q-75 0 -118.5 -65t-43.5 -174q0 -115 46.5 -179.5t123.5 -64.5q60 0 101.5 21 t92.5 65l107 -135q-55 -59 -133 -97t-170 -38q-87 0 -156 26.5t-112 69t-71.5 99.5t-40 113t-11.5 114z" />
<glyph unicode="&#xaa;" horiz-adv-x="897" d="M94 860q0 178 103.5 284.5t287.5 106.5q134 0 283 -53v-504l16 -153h-211l-12 82h-8q-70 -99 -182 -99q-75 0 -130.5 27.5t-86.5 76t-45.5 106t-14.5 126.5zM342 879q0 -183 98 -183q37 0 58.5 20t21.5 48v307q-32 8 -61 8q-60 0 -88.5 -56t-28.5 -144z" />
<glyph unicode="&#xab;" horiz-adv-x="1216" d="M96 547q0 58 68 119q175 167 356 297l125 -123l-227 -303l213 -326l-123 -115q-103 76 -226 191t-163 186q-23 39 -23 74zM602 547q0 58 68 119q175 167 356 297l125 -123l-227 -303l213 -326l-123 -115q-103 76 -226 191t-163 186q-23 39 -23 74z" />
<glyph unicode="&#xac;" d="M106 594v270h879v-577h-264v307h-615z" />
<glyph unicode="&#xad;" horiz-adv-x="659" d="M70 455v254h520v-254h-520z" />
<glyph unicode="&#xae;" horiz-adv-x="948" d="M61 985q0 173 114.5 287t293.5 114q183 0 300.5 -113.5t117.5 -283.5q0 -177 -117 -290t-301 -113q-186 0 -297 111.5t-111 287.5zM178 985q0 -131 82 -215t209 -84q132 0 216.5 82.5t84.5 216.5q0 129 -86 213t-215 84q-131 0 -211 -83.5t-80 -213.5zM332 774v432h155 q68 0 106 -29t38 -87q0 -87 -70 -119q18 -8 27 -31l74 -166h-113l-64 144q-12 28 -32 28h-19v-172h-102zM434 1024h12q38 0 56 12.5t18 44.5q0 29 -18 38t-56 9h-12v-104z" />
<glyph unicode="&#xaf;" horiz-adv-x="1024" d="M184 1266v231h652v-231h-652z" />
<glyph unicode="&#xb0;" horiz-adv-x="610" d="M55 1227q0 109 71 182.5t179 73.5q114 0 182 -71t68 -173q0 -116 -71.5 -192t-184.5 -76t-178.5 73t-65.5 183zM207 1227q0 -49 26 -82t72 -33q45 0 71.5 33.5t26.5 81.5q0 52 -25 83t-73 31q-49 0 -73.5 -31t-24.5 -83z" />
<glyph unicode="&#xb1;" d="M133 0v272h273v203h-273v275h273v299h282v-299h275v-275h-275v-203h275v-272h-830z" />
<glyph unicode="&#xb2;" horiz-adv-x="772" d="M68 1374q156 135 327 135q135 0 207 -60.5t72 -160.5q0 -73 -29.5 -132t-91.5 -124l-133 -141h274v-193h-594v146l250 276q37 46 52.5 72.5t15.5 56.5t-17.5 46t-46.5 16q-59 0 -164 -84z" />
<glyph unicode="&#xb3;" horiz-adv-x="772" d="M88 754l66 172q46 -25 108 -42.5t100 -17.5q36 0 60 16t24 48q0 29 -43 98q-39 -14 -153 -33l-51 150q58 12 153 41q25 10 38.5 17t28.5 25t15 42q0 25 -17 37t-42 12q-32 0 -84 -19.5t-98 -46.5l-103 144q51 40 138.5 76t193.5 36q117 0 183.5 -55.5t66.5 -142.5 q0 -49 -22 -94.5t-64 -75.5q96 -107 96 -205q0 -106 -77.5 -177t-233.5 -71q-135 0 -283 66z" />
<glyph unicode="&#xb4;" horiz-adv-x="1024" d="M287 1260l254 419q31 -8 60 -20t59.5 -30.5t49.5 -46.5t19 -60q0 -49 -67 -119q-102 -100 -277 -227z" />
<glyph unicode="&#xb5;" horiz-adv-x="1183" d="M127 -442v1491h322v-603q0 -53 2.5 -86.5t10.5 -65t23 -48.5t39.5 -27t61.5 -10q78 0 111.5 69.5t33.5 213.5v557h326v-783q0 -34 12 -49.5t39 -15.5q20 0 57 12l29 -190q-103 -50 -207 -50q-154 0 -186 146q-23 -69 -77 -109.5t-126 -40.5q-52 0 -95.5 21.5t-70.5 58.5 v-491h-305z" />
<glyph unicode="&#xb6;" horiz-adv-x="1157" d="M74 883q0 125 39.5 218.5t111 149.5t164.5 83.5t207 27.5h446v-1172q0 -80 -5.5 -139.5t-20.5 -119t-41.5 -103.5t-68.5 -85t-101 -71t-139.5 -55t-184.5 -43l-67 285q120 23 185.5 60.5t90.5 91.5t25 143v968h-142v-690q-102 1 -189 26.5t-158 77.5t-111.5 141 t-40.5 206z" />
<glyph unicode="&#xb7;" horiz-adv-x="645" d="M152 629q0 71 44.5 116.5t122.5 45.5q83 0 128 -43t45 -117q0 -71 -43.5 -117.5t-122.5 -46.5q-85 0 -129.5 45t-44.5 117z" />
<glyph unicode="&#xb8;" horiz-adv-x="1024" d="M266 -475l41 139q75 -26 137 -26q103 0 103 63q0 23 -15 38t-43.5 22t-58.5 9.5t-72 2.5l76 233h141l-34 -123q91 -9 145.5 -56t54.5 -122q0 -51 -17.5 -90t-45 -62.5t-65 -38.5t-72.5 -20.5t-72 -5.5q-106 0 -203 37z" />
<glyph unicode="&#xb9;" horiz-adv-x="772" d="M78 1341l270 156h199l-12 -162v-452h133v-185h-516v185h145v372l-147 -61z" />
<glyph unicode="&#xba;" horiz-adv-x="847" d="M82 881q0 81 22.5 146.5t58 106.5t83.5 68t95 38t95 11q44 0 84 -6.5t89 -28.5t84 -58t59 -101t24 -152q0 -181 -100.5 -281t-255.5 -100q-157 0 -247.5 91.5t-90.5 265.5zM336 911q0 -49 3.5 -84t13 -65.5t28.5 -46t47 -15.5q50 0 72 43t22 142q0 103 -21 147.5 t-73 44.5q-92 0 -92 -166z" />
<glyph unicode="&#xbb;" horiz-adv-x="1218" d="M66 840l127 123q189 -137 356 -297q67 -60 67 -119q0 -37 -22 -74q-40 -71 -163 -186t-226 -191l-123 115l213 326zM571 840l127 123q194 -140 357 -297q67 -60 67 -119q0 -37 -22 -74q-40 -71 -163 -186t-226 -191l-123 115l213 326z" />
<glyph unicode="&#xbc;" horiz-adv-x="1740" d="M33 1178l270 155h199l-13 -162v-452h134v-184h-517v184h146v373l-148 -62zM477 61l598 1282l215 -88l-602 -1284zM1024 166v127l248 534l186 -90l-194 -407h96l74 202h143v-202h106v-168h-108v-164h-234v168h-317z" />
<glyph unicode="&#xbd;" horiz-adv-x="1740" d="M49 1178l270 155h199l-12 -162v-452h133v-184h-516v184h145v373l-147 -62zM483 61l598 1282l215 -88l-602 -1284zM1075 676q156 135 328 135q135 0 206.5 -60.5t71.5 -160.5q0 -73 -29 -132t-91 -124l-134 -141h275v-193h-594v145l250 277q37 45 52 72t15 57t-17 45.5 t-46 15.5q-59 0 -164 -84z" />
<glyph unicode="&#xbe;" horiz-adv-x="1740" d="M41 590l65 172q46 -25 108 -42.5t101 -17.5q36 0 60 16t24 48q0 29 -43 98q-40 -14 -153 -33l-51 150q58 12 153 41q25 10 38.5 17t28.5 25t15 42q0 25 -17 37t-42 12q-32 0 -85 -19.5t-98 -45.5l-102 143q52 40 139 76.5t193 36.5q117 0 183.5 -56t66.5 -143 q0 -49 -22 -94.5t-64 -75.5q96 -107 96 -205q0 -106 -77.5 -177t-233.5 -71q-135 0 -283 66zM467 61l598 1282l215 -88l-602 -1284zM1042 166v127l248 534l187 -90l-195 -407h96l74 202h143v-202h107v-168h-109v-164h-233v168h-318z" />
<glyph unicode="&#xbf;" horiz-adv-x="772" d="M41 -100q0 -37 7.5 -73t32.5 -80.5t65.5 -77.5t114 -56t171.5 -23q77 0 160.5 15.5t126.5 34.5l-47 225q-113 -31 -176 -31q-121 0 -121 113q0 50 27.5 81t86.5 68q84 52 109 75q81 78 82 214q0 72 -21 227h-256v-145q0 -57 -20 -95.5t-66 -68.5q-60 -39 -94 -64t-74 -63 t-60 -74t-34 -88t-14 -114zM360 885q0 67 45 115.5t123 48.5q83 0 128.5 -46.5t45.5 -117.5q0 -65 -46.5 -112.5t-120.5 -47.5q-83 0 -129 44.5t-46 115.5z" />
<glyph unicode="&#xc0;" horiz-adv-x="1325" d="M8 0l443 1362h395l471 -1362h-375l-92 291h-412l-92 -291h-338zM393 1712q0 44 40.5 88t101.5 78l356 -340l-76 -104q-243 106 -323 153q-55 32 -77 60t-22 65zM498 549h286l-137 485h-8z" />
<glyph unicode="&#xc1;" horiz-adv-x="1325" d="M8 0l443 1362h395l471 -1362h-375l-92 291h-412l-92 -291h-338zM422 1538l356 344q60 -34 101 -79t41 -89q0 -38 -22.5 -66t-76.5 -61q-129 -74 -323 -151zM498 549h286l-137 485h-8z" />
<glyph unicode="&#xc2;" horiz-adv-x="1325" d="M8 0l443 1362h395l471 -1362h-375l-92 291h-412l-92 -291h-338zM301 1520q10 12 37.5 46t40.5 49.5t38 44.5t41.5 47t37.5 39.5t39 37.5q57 51 106 51q52 0 102 -47q139 -132 242 -264l-100 -92l-244 174l-238 -174zM498 549h286l-137 485h-8z" />
<glyph unicode="&#xc3;" horiz-adv-x="1325" d="M8 0l443 1362h395l471 -1362h-375l-92 291h-412l-92 -291h-338zM338 1669q81 64 178 64q57 0 149 -28t138 -28q67 0 133 39l18 -192q-68 -41 -143 -41q-48 0 -150.5 24.5t-144.5 24.5q-81 0 -158 -45zM498 549h286l-137 485h-8z" />
<glyph unicode="&#xc4;" horiz-adv-x="1325" d="M8 0l443 1362h395l471 -1362h-375l-92 291h-412l-92 -291h-338zM258 1606q0 63 43 105t115 42q69 0 113 -42t44 -105q0 -64 -43.5 -106t-113.5 -42q-72 0 -115 42t-43 106zM498 549h286l-137 485h-8zM707 1606q0 63 43.5 105t115.5 42q69 0 113.5 -42.5t44.5 -104.5 q0 -64 -45 -106t-115 -42q-72 0 -114.5 41.5t-42.5 106.5z" />
<glyph unicode="&#xc5;" horiz-adv-x="1325" d="M8 0l441 1360q-60 72 -60 178q0 111 74 186.5t188 75.5q121 0 191.5 -72t70.5 -178q0 -115 -67 -188l471 -1362h-375l-92 291h-412l-92 -291h-338zM498 549h286l-137 485h-8zM555 1538q0 -50 25.5 -82.5t70.5 -32.5t71 33.5t26 81.5q0 52 -24.5 83.5t-72.5 31.5 q-49 0 -72.5 -31.5t-23.5 -83.5z" />
<glyph unicode="&#xc6;" horiz-adv-x="1712" d="M4 0l455 1362h1177v-307h-639l72 -207h492v-307h-428l79 -234h439v-307h-713l-107 326h-387l-102 -326h-338zM506 584h266l-127 438h-8z" />
<glyph unicode="&#xc7;" horiz-adv-x="1214" d="M70 670q0 131 26 240t72.5 185.5t107 134t134 91t148 49.5t153.5 16q145 0 272 -68t221 -214l-250 -180q-123 170 -260 170q-119 0 -190.5 -104t-71.5 -300q0 -201 71 -313.5t216 -112.5q142 0 287 135l178 -229q-107 -98 -220 -145t-249 -50l-25 -92q91 -9 146 -56 t55 -122q0 -51 -18 -90t-45.5 -62.5t-65 -38.5t-72.5 -20.5t-72 -5.5q-105 0 -202 37l41 139q75 -26 137 -26q102 0 102 63q0 23 -15 38t-43.5 22t-58 9.5t-71.5 2.5l67 213q-238 34 -371.5 209.5t-133.5 474.5z" />
<glyph unicode="&#xc8;" horiz-adv-x="1081" d="M115 0v1362h891v-307h-539v-207h463v-307h-463v-234h553v-307h-905zM274 1712q0 44 40.5 88t101.5 78l356 -340l-76 -104q-243 106 -323 153q-55 32 -77 60t-22 65z" />
<glyph unicode="&#xc9;" horiz-adv-x="1081" d="M115 0v1362h891v-307h-539v-207h463v-307h-463v-234h553v-307h-905zM342 1538l356 344q60 -34 101 -79t41 -89q0 -38 -22.5 -66t-76.5 -61q-129 -74 -323 -151z" />
<glyph unicode="&#xca;" horiz-adv-x="1081" d="M115 0v1362h891v-307h-539v-207h463v-307h-463v-234h553v-307h-905zM213 1520q11 13 44.5 54t50 61t44 51.5t50 55t44.5 42.5q57 51 107 51q52 0 102 -47q139 -132 242 -264l-100 -92l-244 174l-238 -174z" />
<glyph unicode="&#xcb;" horiz-adv-x="1081" d="M115 0v1362h891v-307h-539v-207h463v-307h-463v-234h553v-307h-905zM166 1606q0 63 43 105t115 42q69 0 113 -42t44 -105q0 -64 -43.5 -106t-113.5 -42q-72 0 -115 42t-43 106zM614 1606q0 63 44 105t116 42q69 0 113.5 -42.5t44.5 -104.5q0 -64 -45 -106t-115 -42 q-72 0 -115 42t-43 106z" />
<glyph unicode="&#xcc;" horiz-adv-x="598" d="M25 1712q0 44 40.5 88t100.5 78l356 -340l-76 -104q-243 106 -323 153q-55 32 -76.5 60t-21.5 65zM123 0v1362h352v-1362h-352z" />
<glyph unicode="&#xcd;" horiz-adv-x="598" d="M72 1538l356 344q60 -34 100.5 -79t40.5 -89q0 -38 -22 -66.5t-76 -60.5q-127 -73 -324 -151zM123 0v1362h352v-1362h-352z" />
<glyph unicode="&#xce;" horiz-adv-x="598" d="M-43 1520q11 13 44.5 54t50 61t44 51.5t50 55t44.5 42.5q57 51 107 51q52 0 102 -47q139 -132 242 -264l-100 -92l-244 174l-238 -174zM123 0v1362h352v-1362h-352z" />
<glyph unicode="&#xcf;" horiz-adv-x="598" d="M-82 1606q0 63 43 105t115 42q69 0 113 -42t44 -105q0 -64 -43.5 -106t-113.5 -42q-72 0 -115 42t-43 106zM123 0v1362h352v-1362h-352zM367 1606q0 63 43.5 105t115.5 42q69 0 113.5 -42.5t44.5 -104.5q0 -64 -45 -106t-115 -42q-72 0 -114.5 41.5t-42.5 106.5z" />
<glyph unicode="&#xd0;" horiz-adv-x="1345" d="M10 561v236h127v565h477q314 0 488 -158.5t174 -476.5q0 -155 -35.5 -279.5t-95.5 -207t-144.5 -137.5t-178 -79t-199.5 -24h-486v561h-127zM489 272h138q140 0 218.5 107t78.5 313q0 395 -320 395h-115v-290h273v-236h-273v-289z" />
<glyph unicode="&#xd1;" horiz-adv-x="1357" d="M115 0v1362h325l449 -741h4v741h350v-1362h-311l-463 756h-6v-756h-348zM379 1669q81 64 178 64q57 0 149 -28t138 -28q67 0 133 39l18 -192q-68 -41 -143 -41q-48 0 -150.5 24.5t-144.5 24.5q-81 0 -158 -45z" />
<glyph unicode="&#xd2;" horiz-adv-x="1363" d="M70 678q0 152 37.5 274.5t99 202t145 133t170.5 76t180 22.5q98 0 183 -23.5t160.5 -76.5t129.5 -133.5t85.5 -201.5t31.5 -273q0 -341 -165.5 -522t-450.5 -181q-289 0 -447.5 180t-158.5 523zM414 1712q0 44 40.5 88t100.5 78l356 -340l-75 -104q-247 107 -324 153 q-55 32 -76.5 60t-21.5 65zM432 692q0 -63 5.5 -118t23 -113.5t45 -100t75 -68t109.5 -26.5q68 0 117 33.5t76 92.5t39 128t12 152q0 57 -6 110.5t-23.5 112t-44.5 101t-73 70.5t-105 28q-66 0 -116 -33.5t-78.5 -92t-42 -127.5t-13.5 -149z" />
<glyph unicode="&#xd3;" horiz-adv-x="1363" d="M70 678q0 152 37.5 274.5t99 202t145 133t170.5 76t180 22.5q98 0 183 -23.5t160.5 -76.5t129.5 -133.5t85.5 -201.5t31.5 -273q0 -341 -165.5 -522t-450.5 -181q-289 0 -447.5 180t-158.5 523zM432 692q0 -63 5.5 -118t23 -113.5t45 -100t75 -68t109.5 -26.5 q68 0 117 33.5t76 92.5t39 128t12 152q0 57 -6 110.5t-23.5 112t-44.5 101t-73 70.5t-105 28q-66 0 -116 -33.5t-78.5 -92t-42 -127.5t-13.5 -149zM463 1538l356 344q60 -34 101 -79t41 -89q0 -38 -22.5 -66t-76.5 -61q-129 -74 -323 -151z" />
<glyph unicode="&#xd4;" horiz-adv-x="1363" d="M70 678q0 152 37.5 274.5t99 202t145 133t170.5 76t180 22.5q98 0 183 -23.5t160.5 -76.5t129.5 -133.5t85.5 -201.5t31.5 -273q0 -341 -165.5 -522t-450.5 -181q-289 0 -447.5 180t-158.5 523zM346 1520q10 12 37.5 46t40.5 49.5t38 44.5t41.5 47t37.5 39.5t39 37.5 q57 51 106 51q52 0 102 -47q139 -132 242 -264l-100 -92l-244 174l-237 -174zM432 692q0 -63 5.5 -118t23 -113.5t45 -100t75 -68t109.5 -26.5q68 0 117 33.5t76 92.5t39 128t12 152q0 57 -6 110.5t-23.5 112t-44.5 101t-73 70.5t-105 28q-66 0 -116 -33.5t-78.5 -92 t-42 -127.5t-13.5 -149z" />
<glyph unicode="&#xd5;" horiz-adv-x="1363" d="M70 678q0 152 37.5 274.5t99 202t145 133t170.5 76t180 22.5q98 0 183 -23.5t160.5 -76.5t129.5 -133.5t85.5 -201.5t31.5 -273q0 -341 -165.5 -522t-450.5 -181q-289 0 -447.5 180t-158.5 523zM373 1669q81 64 178 64q57 0 149 -28t138 -28q67 0 133 39l18 -192 q-68 -41 -143 -41q-48 0 -150.5 24.5t-144.5 24.5q-81 0 -158 -45zM432 692q0 -63 5.5 -118t23 -113.5t45 -100t75 -68t109.5 -26.5q68 0 117 33.5t76 92.5t39 128t12 152q0 57 -6 110.5t-23.5 112t-44.5 101t-73 70.5t-105 28q-66 0 -116 -33.5t-78.5 -92t-42 -127.5 t-13.5 -149z" />
<glyph unicode="&#xd6;" horiz-adv-x="1363" d="M70 678q0 152 37.5 274.5t99 202t145 133t170.5 76t180 22.5q98 0 183 -23.5t160.5 -76.5t129.5 -133.5t85.5 -201.5t31.5 -273q0 -341 -165.5 -522t-450.5 -181q-289 0 -447.5 180t-158.5 523zM301 1606q0 63 43 105t115 42q69 0 113 -42t44 -105q0 -64 -43.5 -106 t-113.5 -42q-72 0 -115 42t-43 106zM432 692q0 -63 5.5 -118t23 -113.5t45 -100t75 -68t109.5 -26.5q68 0 117 33.5t76 92.5t39 128t12 152q0 57 -6 110.5t-23.5 112t-44.5 101t-73 70.5t-105 28q-66 0 -116 -33.5t-78.5 -92t-42 -127.5t-13.5 -149zM750 1606q0 63 43.5 105 t115.5 42q69 0 113.5 -42.5t44.5 -104.5q0 -64 -45 -106t-115 -42q-72 0 -114.5 41.5t-42.5 106.5z" />
<glyph unicode="&#xd7;" d="M139 846l199 198l215 -210l205 206l194 -194l-204 -209l208 -209l-200 -199l-209 209l-211 -211l-195 195l211 211z" />
<glyph unicode="&#xd8;" horiz-adv-x="1363" d="M70 678q0 152 37.5 274.5t99 202t145 133t170.5 76t180 22.5q42 0 86 -6l78 205l289 -112l-82 -207q219 -179 219 -588q0 -341 -165.5 -522t-450.5 -181q-38 0 -92 7l-84 -218l-285 115l80 211q-225 175 -225 588zM432 692q0 -63 5.5 -118t23 -113.5t45 -100t75 -68 t109.5 -26.5q68 0 117 33.5t76 92.5t39 128t12 152q0 57 -6 110.5t-23.5 112t-44.5 101t-73 70.5t-105 28q-66 0 -116 -33.5t-78.5 -92t-42 -127.5t-13.5 -149z" />
<glyph unicode="&#xd9;" horiz-adv-x="1288" d="M104 451v911h353v-891q0 -111 50 -157t142 -46q82 0 132 49.5t50 143.5v901h353v-942q0 -205 -149.5 -325t-393.5 -120q-269 0 -403 115t-134 361zM383 1712q0 44 40.5 88t100.5 78l357 -340l-76 -104q-247 107 -324 153q-55 32 -76.5 60t-21.5 65z" />
<glyph unicode="&#xda;" horiz-adv-x="1288" d="M104 451v911h353v-891q0 -111 50 -157t142 -46q82 0 132 49.5t50 143.5v901h353v-942q0 -205 -149.5 -325t-393.5 -120q-269 0 -403 115t-134 361zM420 1538l356 344q60 -34 101 -79t41 -89q0 -38 -22.5 -66t-76.5 -61q-129 -74 -323 -151z" />
<glyph unicode="&#xdb;" horiz-adv-x="1288" d="M104 451v911h353v-891q0 -111 50 -157t142 -46q82 0 132 49.5t50 143.5v901h353v-942q0 -205 -149.5 -325t-393.5 -120q-269 0 -403 115t-134 361zM307 1520q10 12 37.5 46t40.5 49.5t38 44.5t41.5 47t37.5 39.5t39 37.5q57 51 106 51q53 0 103 -47q136 -128 241 -264 l-100 -92l-244 174l-237 -174z" />
<glyph unicode="&#xdc;" horiz-adv-x="1288" d="M104 451v911h353v-891q0 -111 50 -157t142 -46q82 0 132 49.5t50 143.5v901h353v-942q0 -205 -149.5 -325t-393.5 -120q-269 0 -403 115t-134 361zM262 1606q0 63 43 105t115 42q69 0 113.5 -42.5t44.5 -104.5q0 -64 -44 -106t-114 -42q-72 0 -115 42t-43 106zM711 1606 q0 63 43.5 105t115.5 42q69 0 113.5 -42.5t44.5 -104.5q0 -64 -45 -106t-115 -42q-72 0 -114.5 41.5t-42.5 106.5z" />
<glyph unicode="&#xdd;" horiz-adv-x="1216" d="M-14 1362h387l235 -492h8l248 492h367l-455 -838v-524h-350v522zM395 1538l357 344q60 -34 100.5 -79t40.5 -89q0 -38 -22 -66.5t-76 -60.5q-127 -73 -324 -151z" />
<glyph unicode="&#xde;" horiz-adv-x="1173" d="M115 0v1362h352v-205h147q243 0 379.5 -110.5t136.5 -321.5q0 -154 -72.5 -263t-197 -161.5t-289.5 -52.5h-104v-248h-352zM467 522h80q109 0 165 40t56 140q0 101 -50 141t-153 40h-98v-361z" />
<glyph unicode="&#xdf;" horiz-adv-x="1265" d="M109 -430v1503q0 68 12 125t47 116.5t92.5 100t156.5 66.5t230 26q244 0 370 -88t126 -233q0 -62 -26 -118t-63.5 -96.5t-75 -77t-63.5 -73.5t-26 -71q0 -32 25 -60t62 -49t81 -51.5t81 -63t62 -87.5t25 -122q0 -164 -114 -257t-302 -93q-152 0 -277 49l70 248 q106 -47 184 -47q99 0 99 84q0 29 -17 52.5t-44.5 42t-61 37t-67 41.5t-61 51.5t-44.5 71.5t-17 97q0 61 25.5 117t62 98t73 80t62 78.5t25.5 77.5q0 112 -180 112q-190 0 -190 -176v-1511h-342z" />
<glyph unicode="&#xe0;" horiz-adv-x="1107" d="M51 477q0 278 141.5 440t413.5 162q69 0 177.5 -19.5t220.5 -62.5v-776l22 -221h-291l-14 96l-12 2q-82 -129 -265 -129q-91 0 -161 28.5t-113 76t-70.5 114.5t-38 137t-10.5 152zM315 1522q0 33 19 60.5t50.5 46t61 30.5t60.5 20l254 -419l-98 -84q-192 140 -277 227 q-70 70 -70 119zM391 502q0 -86 11.5 -146.5t45.5 -101.5t91 -41t91 35t34 82v493q-43 15 -95 15q-48 0 -83.5 -27t-55.5 -75.5t-29.5 -106.5t-9.5 -127z" />
<glyph unicode="&#xe1;" horiz-adv-x="1107" d="M51 477q0 278 141.5 440t413.5 162q69 0 177.5 -19.5t220.5 -62.5v-776l22 -221h-291l-14 96l-12 2q-82 -129 -265 -129q-91 0 -161 28.5t-113 76t-70.5 114.5t-38 137t-10.5 152zM391 502q0 -86 11.5 -146.5t45.5 -101.5t91 -41t91 35t34 82v493q-43 15 -95 15 q-48 0 -83.5 -27t-55.5 -75.5t-29.5 -106.5t-9.5 -127zM403 1260l254 419q31 -8 60 -20t60 -30.5t50 -46.5t19 -60q0 -48 -68 -119q-105 -103 -276 -227z" />
<glyph unicode="&#xe2;" horiz-adv-x="1107" d="M51 477q0 278 141.5 440t413.5 162q69 0 177.5 -19.5t220.5 -62.5v-776l22 -221h-291l-14 96l-12 2q-82 -129 -265 -129q-91 0 -161 28.5t-113 76t-70.5 114.5t-38 137t-10.5 152zM217 1272q105 158 225 299q41 47 68.5 63.5t67.5 16.5q42 0 69 -16.5t66 -63.5 q111 -127 231 -299l-110 -88l-256 215l-250 -215zM391 502q0 -86 11.5 -146.5t45.5 -101.5t91 -41t91 35t34 82v493q-43 15 -95 15q-48 0 -83.5 -27t-55.5 -75.5t-29.5 -106.5t-9.5 -127z" />
<glyph unicode="&#xe3;" horiz-adv-x="1107" d="M51 477q0 278 141.5 440t413.5 162q69 0 177.5 -19.5t220.5 -62.5v-776l22 -221h-291l-14 96l-12 2q-82 -129 -265 -129q-91 0 -161 28.5t-113 76t-70.5 114.5t-38 137t-10.5 152zM266 1456q81 64 178 64q57 0 149 -28t138 -28q67 0 133 39l19 -192q-68 -41 -144 -41 q-48 0 -150.5 24.5t-144.5 24.5q-80 0 -157 -45zM391 502q0 -86 11.5 -146.5t45.5 -101.5t91 -41t91 35t34 82v493q-43 15 -95 15q-48 0 -83.5 -27t-55.5 -75.5t-29.5 -106.5t-9.5 -127z" />
<glyph unicode="&#xe4;" horiz-adv-x="1107" d="M51 477q0 278 141.5 440t413.5 162q69 0 177.5 -19.5t220.5 -62.5v-776l22 -221h-291l-14 96l-12 2q-82 -129 -265 -129q-91 0 -161 28.5t-113 76t-70.5 114.5t-38 137t-10.5 152zM195 1386q0 62 43 105t114 43q69 0 113.5 -43.5t44.5 -104.5q0 -65 -44 -107t-114 -42 q-72 0 -114.5 41.5t-42.5 107.5zM391 502q0 -86 11.5 -146.5t45.5 -101.5t91 -41t91 35t34 82v493q-43 15 -95 15q-48 0 -83.5 -27t-55.5 -75.5t-29.5 -106.5t-9.5 -127zM641 1386q0 62 44 105t116 43q69 0 113 -43t44 -105q0 -65 -44.5 -107t-114.5 -42q-72 0 -115 41.5 t-43 107.5z" />
<glyph unicode="&#xe5;" horiz-adv-x="1107" d="M51 477q0 278 141.5 440t413.5 162q69 0 177.5 -19.5t220.5 -62.5v-776l22 -221h-291l-14 96l-12 2q-82 -129 -265 -129q-91 0 -161 28.5t-113 76t-70.5 114.5t-38 137t-10.5 152zM324 1477q0 111 74 185.5t188 74.5q121 0 191.5 -71.5t70.5 -176.5q0 -119 -74 -195.5 t-194 -76.5t-188 74t-68 186zM391 502q0 -86 11.5 -146.5t45.5 -101.5t91 -41t91 35t34 82v493q-43 15 -95 15q-48 0 -83.5 -27t-55.5 -75.5t-29.5 -106.5t-9.5 -127zM489 1477q0 -49 25.5 -82t71.5 -33q45 0 70.5 33.5t25.5 81.5q0 53 -24 83.5t-72 30.5q-97 0 -97 -114z " />
<glyph unicode="&#xe6;" horiz-adv-x="1523" d="M51 479q0 181 61.5 314.5t187 209.5t304.5 76q145 0 287 -59q112 59 248 59q166 0 262 -81t96 -238q0 -85 -37.5 -151t-92.5 -104t-132 -64t-140.5 -36t-133.5 -14q5 -74 58 -121t142 -47q122 0 254 86l92 -225q-7 -6 -24.5 -17t-55.5 -29t-82 -33.5t-107.5 -26.5 t-127.5 -11q-236 0 -358 125q-137 -127 -303 -127q-90 0 -160 28.5t-114 76t-72.5 115t-40 139.5t-11.5 155zM391 508q0 -295 150 -295q69 0 108 53q-37 101 -37 230q0 176 78 317q-70 27 -123 27q-47 0 -82 -27.5t-55 -75t-29.5 -105t-9.5 -124.5zM944 598q60 3 116 20.5 t98 54t42 83.5q0 38 -22 61t-58 23q-77 0 -124 -67t-52 -175z" />
<glyph unicode="&#xe7;" horiz-adv-x="946" d="M51 512q0 118 29 214.5t78 161t115 108.5t137 63.5t147 19.5q266 0 401 -213l-208 -178q-42 58 -84 89.5t-95 31.5q-85 0 -130.5 -73.5t-45.5 -209.5q0 -138 51.5 -212t153.5 -74q54 0 103 19t112 63l121 -232q-144 -115 -363 -121l-24 -86q91 -9 146 -56t55 -122 q0 -51 -18 -90t-45.5 -62.5t-65 -38.5t-72.5 -20.5t-72 -5.5q-106 0 -203 37l41 139q75 -26 138 -26q102 0 102 63q0 23 -15 38t-43.5 22t-58 9.5t-71.5 2.5l67 207q-183 33 -283 168.5t-100 363.5z" />
<glyph unicode="&#xe8;" horiz-adv-x="962" d="M51 496q0 -120 28.5 -214.5t87 -166t156.5 -110t230 -38.5q64 0 127.5 11.5t107.5 27t81 33t54.5 29t22.5 16.5l-90 225q-132 -86 -254 -86q-90 0 -143.5 47.5t-59.5 120.5q48 3 93 8.5t100.5 18t102.5 30t92.5 46.5t77.5 65t51.5 87.5t19.5 113.5q0 157 -96 238t-262 81 q-127 0 -229.5 -49t-166 -131.5t-97.5 -186t-34 -216.5zM260 1522q0 33 19 60.5t50.5 46t61 30.5t60.5 20l254 -419l-99 -84q-189 138 -276 227q-70 70 -70 119zM383 598q5 107 52.5 174.5t123.5 67.5q37 0 58.5 -23t21.5 -61q0 -47 -42 -83.5t-98 -54t-116 -20.5z" />
<glyph unicode="&#xe9;" horiz-adv-x="962" d="M51 496q0 113 34 216.5t97.5 186t166 131.5t229.5 49q166 0 262 -81t96 -238q0 -62 -19.5 -113.5t-51.5 -87.5t-77.5 -65t-92.5 -46.5t-102.5 -30t-100.5 -18t-93 -8.5q6 -73 59.5 -120.5t143.5 -47.5q122 0 254 86l90 -225q-5 -5 -22.5 -16.5t-54.5 -29t-81 -33 t-107.5 -27t-127.5 -11.5q-132 0 -230 38.5t-156.5 110t-87 166t-28.5 214.5zM338 1260l254 419q31 -8 60 -20t59.5 -30.5t49.5 -46.5t19 -60q0 -49 -67 -119q-102 -100 -277 -227zM383 598q60 3 116 20.5t98 54t42 83.5q0 38 -21.5 61t-58.5 23q-76 0 -123.5 -67.5 t-52.5 -174.5z" />
<glyph unicode="&#xea;" horiz-adv-x="962" d="M51 496q0 -120 28.5 -214.5t87 -166t156.5 -110t230 -38.5q64 0 127.5 11.5t107.5 27t81 33t54.5 29t22.5 16.5l-90 225q-132 -86 -254 -86q-90 0 -143.5 47.5t-59.5 120.5q48 3 93 8.5t100.5 18t102.5 30t92.5 46.5t77.5 65t51.5 87.5t19.5 113.5q0 157 -96 238t-262 81 q-127 0 -229.5 -49t-166 -131.5t-97.5 -186t-34 -216.5zM176 1272q105 158 225 299q41 47 68.5 63.5t67.5 16.5q42 0 69 -16.5t66 -63.5q111 -127 231 -299l-110 -88l-256 215l-250 -215zM383 598q5 107 52.5 174.5t123.5 67.5q37 0 58.5 -23t21.5 -61q0 -47 -42 -83.5 t-98 -54t-116 -20.5z" />
<glyph unicode="&#xeb;" horiz-adv-x="962" d="M51 496q0 -120 28.5 -214.5t87 -166t156.5 -110t230 -38.5q64 0 127.5 11.5t107.5 27t81 33t54.5 29t22.5 16.5l-90 225q-132 -86 -254 -86q-90 0 -143.5 47.5t-59.5 120.5q48 3 93 8.5t100.5 18t102.5 30t92.5 46.5t77.5 65t51.5 87.5t19.5 113.5q0 157 -96 238t-262 81 q-127 0 -229.5 -49t-166 -131.5t-97.5 -186t-34 -216.5zM154 1386q0 62 43 105t114 43q69 0 113.5 -43.5t44.5 -104.5q0 -65 -44 -107t-114 -42q-72 0 -114.5 41.5t-42.5 107.5zM383 598q5 107 52.5 174.5t123.5 67.5q37 0 58.5 -23t21.5 -61q0 -47 -42 -83.5t-98 -54 t-116 -20.5zM600 1386q0 62 44 105t116 43q69 0 113.5 -43.5t44.5 -104.5q0 -65 -45 -107t-115 -42q-72 0 -115 41.5t-43 107.5z" />
<glyph unicode="&#xec;" horiz-adv-x="546" d="M41 1522q0 33 19 60.5t50 46t60.5 30.5t60.5 20l254 -419l-98 -84q-189 138 -276 227q-70 70 -70 119zM109 0v1049h344v-1049h-344z" />
<glyph unicode="&#xed;" horiz-adv-x="546" d="M84 1260l254 419q31 -8 60 -20t59.5 -30.5t49.5 -46.5t19 -60q0 -49 -67 -119q-102 -100 -277 -227zM109 0v1049h344v-1049h-344z" />
<glyph unicode="&#xee;" horiz-adv-x="546" d="M-82 1272q105 158 225 299q41 47 68.5 63.5t67.5 16.5q42 0 69 -16.5t66 -63.5q111 -127 231 -299l-110 -88l-256 215l-250 -215zM109 0v1049h344v-1049h-344z" />
<glyph unicode="&#xef;" horiz-adv-x="546" d="M-100 1386q0 62 43 105t114 43q69 0 113.5 -43.5t44.5 -104.5q0 -65 -44 -107t-114 -42q-72 0 -114.5 41.5t-42.5 107.5zM109 0v1049h344v-1049h-344zM346 1386q0 62 44 105t116 43q69 0 113.5 -43.5t44.5 -104.5q0 -65 -45 -107t-115 -42q-72 0 -115 41.5t-43 107.5z " />
<glyph unicode="&#xf0;" horiz-adv-x="1085" d="M61 426q0 117 33.5 211.5t91.5 154.5t134 91.5t163 31.5q114 0 191 -51q-51 296 -420 353l68 256q206 -23 344 -111l192 133l141 -207l-137 -94q89 -126 130.5 -291.5t41.5 -331.5q0 -135 -29 -243t-88 -189.5t-156 -125.5t-226 -44q-240 0 -357 122t-117 335zM414 430 q0 -197 127 -197q74 0 107.5 74t33.5 219q0 65 -2 90q-71 39 -129 39q-137 0 -137 -225z" />
<glyph unicode="&#xf1;" horiz-adv-x="1110" d="M84 1049h285l20 -113q107 143 299 143q156 0 242 -90t86 -272v-717h-344v657q0 81 -17.5 120.5t-72.5 39.5q-62 0 -97.5 -42.5t-35.5 -110.5v-664h-340v838zM254 1456q81 64 178 64q57 0 149 -28t138 -28q67 0 133 39l18 -192q-68 -41 -143 -41q-48 0 -150.5 24.5 t-144.5 24.5q-81 0 -158 -45z" />
<glyph unicode="&#xf2;" horiz-adv-x="1067" d="M49 516q0 -274 124 -411.5t349 -137.5q107 0 199 37.5t161 108.5t108.5 183t39.5 253q0 99 -18.5 180.5t-47.5 135.5t-71.5 94.5t-84 62.5t-91.5 35.5t-87.5 17.5t-78.5 4q-71 0 -138.5 -16.5t-134.5 -58t-117 -104t-81 -161.5t-31 -223zM291 1522q0 33 19 60.5t50 46 t60.5 30.5t60.5 20l254 -419l-98 -84q-192 140 -277 227q-69 69 -69 119zM397 555q0 132 35 205.5t105 73.5q76 0 107.5 -77t31.5 -239q0 -154 -32.5 -227.5t-106.5 -73.5q-35 0 -61 19t-41 49t-23.5 76t-11.5 91t-3 103z" />
<glyph unicode="&#xf3;" horiz-adv-x="1067" d="M49 516q0 124 31 223t81 161.5t117 104t134.5 58t138.5 16.5q41 0 78.5 -4t87.5 -17.5t91.5 -35.5t84 -62.5t71.5 -94.5t47.5 -135.5t18.5 -180.5q0 -141 -39.5 -253t-108.5 -183t-161 -108.5t-199 -37.5q-225 0 -349 137.5t-124 411.5zM352 1260l254 419q31 -8 60 -20 t60 -30.5t50 -46.5t19 -60q0 -48 -68 -119q-105 -103 -276 -227zM397 555q0 -58 3 -103t11.5 -91t23.5 -76t41 -49t61 -19q74 0 106.5 73.5t32.5 227.5q0 162 -31.5 239t-107.5 77q-70 0 -105 -73.5t-35 -205.5z" />
<glyph unicode="&#xf4;" horiz-adv-x="1067" d="M49 516q0 -274 124 -411.5t349 -137.5q107 0 199 37.5t161 108.5t108.5 183t39.5 253q0 99 -18.5 180.5t-47.5 135.5t-71.5 94.5t-84 62.5t-91.5 35.5t-87.5 17.5t-78.5 4q-71 0 -138.5 -16.5t-134.5 -58t-117 -104t-81 -161.5t-31 -223zM174 1272q105 158 225 299 q41 47 68.5 63.5t67.5 16.5q42 0 69 -16.5t66 -63.5q111 -127 231 -299l-110 -88l-256 215l-250 -215zM397 555q0 132 35 205.5t105 73.5q76 0 107.5 -77t31.5 -239q0 -154 -32.5 -227.5t-106.5 -73.5q-35 0 -61 19t-41 49t-23.5 76t-11.5 91t-3 103z" />
<glyph unicode="&#xf5;" horiz-adv-x="1067" d="M49 516q0 124 31 223t81 161.5t117 104t134.5 58t138.5 16.5q41 0 78.5 -4t87.5 -17.5t91.5 -35.5t84 -62.5t71.5 -94.5t47.5 -135.5t18.5 -180.5q0 -141 -39.5 -253t-108.5 -183t-161 -108.5t-199 -37.5q-225 0 -349 137.5t-124 411.5zM227 1456q81 64 179 64 q57 0 148.5 -28t137.5 -28q67 0 133 39l19 -192q-68 -41 -144 -41q-48 0 -150 24.5t-144 24.5q-81 0 -158 -45zM397 555q0 -58 3 -103t11.5 -91t23.5 -76t41 -49t61 -19q74 0 106.5 73.5t32.5 227.5q0 162 -31.5 239t-107.5 77q-70 0 -105 -73.5t-35 -205.5z" />
<glyph unicode="&#xf6;" horiz-adv-x="1067" d="M49 516q0 -274 124 -411.5t349 -137.5q107 0 199 37.5t161 108.5t108.5 183t39.5 253q0 99 -18.5 180.5t-47.5 135.5t-71.5 94.5t-84 62.5t-91.5 35.5t-87.5 17.5t-78.5 4q-71 0 -138.5 -16.5t-134.5 -58t-117 -104t-81 -161.5t-31 -223zM162 1386q0 62 43 105t114 43 q69 0 113.5 -43.5t44.5 -104.5q0 -65 -44 -107t-114 -42q-72 0 -114.5 41.5t-42.5 107.5zM397 555q0 132 35 205.5t105 73.5q76 0 107.5 -77t31.5 -239q0 -154 -32.5 -227.5t-106.5 -73.5q-35 0 -61 19t-41 49t-23.5 76t-11.5 91t-3 103zM608 1386q0 62 44 105t116 43 q69 0 113.5 -43.5t44.5 -104.5q0 -65 -45 -107t-115 -42q-72 0 -115 41.5t-43 107.5z" />
<glyph unicode="&#xf7;" d="M133 498v272h830v-272h-830zM395 236q0 66 41.5 113.5t112.5 47.5q72 0 114 -43.5t42 -115.5q0 -69 -43.5 -116.5t-112.5 -47.5q-73 0 -113.5 44.5t-40.5 117.5zM395 1047q0 65 42 113t112 48q72 0 114 -44.5t42 -114.5t-43.5 -118t-112.5 -48q-73 0 -113.5 45t-40.5 119 z" />
<glyph unicode="&#xf8;" horiz-adv-x="1067" d="M49 516q0 124 31 223t81 161.5t117 104t134.5 58t138.5 16.5q56 0 108 -8l84 189l248 -109l-90 -201q129 -136 129 -401q0 -141 -39.5 -253t-108.5 -183t-161 -108.5t-199 -37.5q-44 0 -88 6l-86 -196l-246 108l88 201q-141 138 -141 430zM397 555q0 -58 3 -103t11.5 -91 t23.5 -76t41 -49t61 -19q74 0 106.5 73.5t32.5 227.5q0 162 -31.5 239t-107.5 77q-70 0 -105 -73.5t-35 -205.5z" />
<glyph unicode="&#xf9;" horiz-adv-x="1116" d="M102 344v705h344v-660q0 -79 19 -117.5t78 -38.5q54 0 89.5 39.5t35.5 100.5v676h342v-850l22 -199h-289l-14 98h-8q-94 -125 -270 -125q-349 0 -349 371zM309 1522q0 33 19 60.5t50.5 46t61 30.5t60.5 20l254 -419l-99 -84q-189 138 -276 227q-70 70 -70 119z" />
<glyph unicode="&#xfa;" horiz-adv-x="1116" d="M102 344v705h344v-660q0 -79 19 -117.5t78 -38.5q54 0 89.5 39.5t35.5 100.5v676h342v-850l22 -199h-289l-14 98h-8q-94 -125 -270 -125q-349 0 -349 371zM362 1260l254 419q31 -8 60 -20t60 -30.5t50 -46.5t19 -60q0 -48 -68 -119q-105 -103 -276 -227z" />
<glyph unicode="&#xfb;" horiz-adv-x="1116" d="M102 344v705h344v-660q0 -79 19 -117.5t78 -38.5q54 0 89.5 39.5t35.5 100.5v676h342v-850l22 -199h-289l-14 98h-8q-94 -125 -270 -125q-349 0 -349 371zM186 1272q102 153 226 299q41 47 68 63.5t67 16.5q42 0 69 -16.5t66 -63.5q111 -127 231 -299l-110 -88l-256 215 l-250 -215z" />
<glyph unicode="&#xfc;" horiz-adv-x="1116" d="M102 344v705h344v-660q0 -79 19 -117.5t78 -38.5q54 0 89.5 39.5t35.5 100.5v676h342v-850l22 -199h-289l-14 98h-8q-94 -125 -270 -125q-349 0 -349 371zM170 1386q0 62 43.5 105t114.5 43q69 0 113 -43t44 -105q0 -65 -43.5 -107t-113.5 -42q-72 0 -115 41.5t-43 107.5 zM616 1386q0 62 44 105t116 43q69 0 113.5 -43.5t44.5 -104.5q0 -65 -45 -107t-115 -42q-72 0 -115 41.5t-43 107.5z" />
<glyph unicode="&#xfd;" horiz-adv-x="1105" d="M102 412v637h344v-590q0 -38 1.5 -61.5t7.5 -49t17 -39t30.5 -22t48.5 -8.5q52 0 84.5 37t32.5 100v633h344v-818q0 -225 -6 -286q-46 -490 -494 -490q-172 0 -264 75t-92 208q0 201 202 348q-127 24 -191.5 109.5t-64.5 216.5zM356 1260l254 419q31 -8 60 -20t60 -30.5 t50 -46.5t19 -60q0 -48 -68 -119q-105 -103 -276 -227zM463 -205q0 -42 23 -70t69 -28q67 0 94 58t27 167v174q-44 -26 -78.5 -53.5t-67 -64.5t-50 -83.5t-17.5 -99.5z" />
<glyph unicode="&#xfe;" horiz-adv-x="1091" d="M94 -430v1853h342v-368q105 24 191 24q206 0 314 -141.5t108 -407.5q0 -269 -122 -415t-337 -146q-91 0 -154 29v-428h-342zM436 254q56 -35 113 -35q55 0 90.5 42.5t49 106.5t13.5 150q0 72 -7 124t-25.5 95.5t-53.5 65.5t-88 22q-46 0 -92 -12v-559z" />
<glyph unicode="&#xff;" horiz-adv-x="1105" d="M102 412v637h344v-590q0 -38 1.5 -61.5t7.5 -49t17 -39t30.5 -22t48.5 -8.5q52 0 84.5 37t32.5 100v633h344v-818q0 -225 -6 -286q-46 -490 -494 -490q-172 0 -264 75t-92 208q0 201 202 348q-127 24 -191.5 109.5t-64.5 216.5zM176 1386q0 62 43.5 105t114.5 43 q69 0 113.5 -43.5t44.5 -104.5q0 -65 -44 -107t-114 -42q-72 0 -115 41.5t-43 107.5zM463 -205q0 -42 23 -70t69 -28q67 0 94 58t27 167v174q-44 -26 -78.5 -53.5t-67 -64.5t-50 -83.5t-17.5 -99.5zM623 1386q0 62 44 105t115 43q69 0 113.5 -43.5t44.5 -104.5 q0 -65 -45 -107t-115 -42q-72 0 -114.5 41.5t-42.5 107.5z" />
<glyph unicode="&#x152;" horiz-adv-x="1843" d="M70 678q0 152 38 274t100 201.5t146.5 132.5t172.5 75.5t182 22.5q110 0 209 -22h849v-307h-536v-207h461v-307h-461v-234h551v-307h-858q-131 -31 -250 -31q-289 0 -446.5 182t-157.5 527zM432 692q0 -434 283 -434q102 0 162 35v760q-90 39 -168 39q-75 0 -130.5 -33.5 t-86.5 -91.5t-45.5 -126.5t-14.5 -148.5z" />
<glyph unicode="&#x153;" horiz-adv-x="1579" d="M49 516q0 124 30 223t78 161.5t112.5 104t128.5 58t130 16.5q228 0 328 -164q138 164 338 164q166 0 262 -81t96 -238q0 -85 -37.5 -151t-92.5 -104t-132 -64t-140.5 -36t-133.5 -14q6 -73 59.5 -120.5t143.5 -47.5q125 0 251 86l93 -225q-7 -6 -23.5 -16.5t-54.5 -29 t-81.5 -33.5t-107 -26.5t-127.5 -11.5q-219 0 -346 148q-55 -69 -141 -108.5t-180 -39.5q-213 0 -333 138t-120 411zM397 555q0 -58 3 -103t11.5 -91t23.5 -76t41 -49t61 -19q74 0 106.5 73.5t32.5 227.5q0 162 -31.5 239t-107.5 77q-70 0 -105 -73.5t-35 -205.5zM999 598 q60 3 116 20.5t98 54t42 83.5q0 38 -21 61t-58 23q-76 0 -124 -67.5t-53 -174.5z" />
<glyph unicode="&#x178;" horiz-adv-x="1216" d="M-14 1362l440 -840v-522h350v524l455 838h-367l-248 -492h-8l-235 492h-387zM231 1606q0 63 43 105t115 42q69 0 113.5 -42.5t44.5 -104.5q0 -64 -44 -106t-114 -42q-72 0 -115 42t-43 106zM680 1606q0 63 44 105t116 42q69 0 113 -42t44 -105q0 -64 -44.5 -106 t-114.5 -42q-72 0 -115 42t-43 106z" />
<glyph unicode="&#x2c6;" horiz-adv-x="1024" d="M147 1272q102 153 226 299q41 47 68 63.5t67 16.5q42 0 69 -16.5t66 -63.5q111 -127 231 -299l-110 -88l-256 215l-250 -215z" />
<glyph unicode="&#x2dc;" horiz-adv-x="1024" d="M201 1456q81 64 178 64q57 0 149 -28t138 -28q67 0 133 39l18 -192q-68 -41 -143 -41q-48 0 -150.5 24.5t-144.5 24.5q-81 0 -158 -45z" />
<glyph unicode="&#x2000;" horiz-adv-x="941" />
<glyph unicode="&#x2001;" horiz-adv-x="1882" />
<glyph unicode="&#x2002;" horiz-adv-x="941" />
<glyph unicode="&#x2003;" horiz-adv-x="1882" />
<glyph unicode="&#x2004;" horiz-adv-x="627" />
<glyph unicode="&#x2005;" horiz-adv-x="470" />
<glyph unicode="&#x2006;" horiz-adv-x="313" />
<glyph unicode="&#x2007;" horiz-adv-x="313" />
<glyph unicode="&#x2008;" horiz-adv-x="235" />
<glyph unicode="&#x2009;" horiz-adv-x="376" />
<glyph unicode="&#x200a;" horiz-adv-x="104" />
<glyph unicode="&#x2010;" horiz-adv-x="659" d="M61 455v252h537v-252h-537z" />
<glyph unicode="&#x2011;" horiz-adv-x="659" d="M61 455v252h537v-252h-537z" />
<glyph unicode="&#x2012;" horiz-adv-x="659" d="M61 455v252h537v-252h-537z" />
<glyph unicode="&#x2013;" horiz-adv-x="1024" d="M0 455v219h1024v-219h-1024z" />
<glyph unicode="&#x2014;" horiz-adv-x="2048" d="M0 455v219h2048v-219h-2048z" />
<glyph unicode="&#x2018;" horiz-adv-x="512" d="M74 1065q0 82 67 208.5t150 242.5l178 -64l-111 -514q-38 -6 -90 -6q-82 0 -138 30.5t-56 102.5z" />
<glyph unicode="&#x2019;" horiz-adv-x="518" d="M82 969l90 518q38 10 121 10q174 -4 174 -127q0 -132 -207 -457z" />
<glyph unicode="&#x201a;" horiz-adv-x="466" d="M37 -281q31 280 69 426q25 105 125 105q53 0 110.5 -33t96.5 -70l-225 -485z" />
<glyph unicode="&#x201c;" horiz-adv-x="921" d="M66 1065q0 82 67 208.5t150 242.5l178 -64l-111 -514q-38 -6 -90 -6q-82 0 -138 30.5t-56 102.5zM475 1065q0 82 67 208.5t150 242.5l178 -64l-110 -514q-37 -6 -90 -6q-82 0 -138.5 30.5t-56.5 102.5z" />
<glyph unicode="&#x201d;" horiz-adv-x="927" d="M82 969l90 518q38 10 121 10q174 -4 174 -127q0 -132 -207 -457zM492 969l90 518q38 10 120 10q175 -4 175 -127q0 -132 -207 -457z" />
<glyph unicode="&#x201e;" horiz-adv-x="876" d="M37 -281q31 280 69 426q25 105 125 105q53 0 110.5 -33t96.5 -70l-225 -485zM446 -281q30 274 70 426q25 105 125 105q53 0 110.5 -33t96.5 -70l-225 -485z" />
<glyph unicode="&#x2022;" horiz-adv-x="1024" d="M248 643q0 125 74.5 203t189.5 78q116 0 190 -78t74 -203t-74 -201.5t-190 -76.5t-190 75.5t-74 202.5z" />
<glyph unicode="&#x2026;" horiz-adv-x="1783" d="M143 129q0 70 45 116t121 46q84 0 129 -43t45 -117q0 -72 -44 -118t-124 -46q-84 0 -128 44.5t-44 117.5zM725 129q0 70 45 116t121 46q84 0 129 -43t45 -117q0 -72 -44 -118t-124 -46q-84 0 -128 44.5t-44 117.5zM1300 129q0 70 45 116t121 46q84 0 129 -43t45 -117 q0 -72 -43.5 -118t-123.5 -46q-84 0 -128.5 44.5t-44.5 117.5z" />
<glyph unicode="&#x202f;" horiz-adv-x="376" />
<glyph unicode="&#x2039;" horiz-adv-x="710" d="M96 547q0 58 68 119q175 167 356 297l125 -123l-227 -303l213 -326l-123 -115q-103 76 -226 191t-163 186q-23 39 -23 74z" />
<glyph unicode="&#x203a;" horiz-adv-x="710" d="M63 840l127 123q194 -140 357 -297q67 -60 67 -119q0 -37 -22 -74q-40 -71 -163 -186t-226 -191l-123 115l213 326z" />
<glyph unicode="&#x205f;" horiz-adv-x="470" />
<glyph unicode="&#x20ac;" d="M57 539v254h213q-48 25 -79 83t-31 123q0 159 120.5 253t344.5 94q110 0 228.5 -44.5t203.5 -127.5l-152 -207q-127 102 -266 102q-70 0 -116 -35.5t-46 -97.5q0 -59 41 -101t135 -42h265v-254h-259q-89 0 -137.5 -38t-48.5 -108q0 -68 51 -111.5t140 -43.5 q162 0 317 106l117 -223q-113 -83 -232.5 -119.5t-261.5 -36.5q-95 0 -172 18t-129 49t-87 74.5t-50.5 92.5t-15.5 104q0 149 120 236h-213z" />
<glyph unicode="&#x2122;" horiz-adv-x="1437" d="M37 1184v178h571v-178h-186v-510h-207v510h-178zM645 674l41 688h211l123 -404h6l119 404h209l37 -688h-185l-14 346h-8l-90 -287h-150l-92 287h-6l-21 -346h-180z" />
<glyph unicode="&#xe000;" horiz-adv-x="1044" d="M0 0v1044h1044v-1044h-1044z" />
</font>
</defs></svg> 